astroid==2.11.2
black==22.3.0
click==8.1.2
dill==0.3.4
flake8==4.0.1
flake8-pylint==0.1.3
isort==5.10.1
lazy-object-proxy==1.7.1
mccabe==0.6.1
mypy-extensions==0.4.3
pathspec==0.9.0
platformdirs==2.5.1
pycodestyle==2.8.0
pyflakes==2.4.0
pylint==2.13.5
pyproject-flake8==0.0.1a3
tomli==2.0.1
wrapt==1.14.0
